%YAML 1.1
%TAG !u! tag:unity3d.com,2011:
--- !u!21 &2100000
Material:
  serializedVersion: 6
  m_ObjectHideFlags: 0
  m_CorrespondingSourceObject: {fileID: 0}
  m_PrefabInstance: {fileID: 0}
  m_PrefabAsset: {fileID: 0}
  m_Name: TileCenterMaterial
  m_Shader: {fileID: 4800000, guid: e9e093e639ab34f05bb1e9c0ecee6d38, type: 3}
  m_ShaderKeywords: USE_FOG
  m_LightmapFlags: 4
  m_EnableInstancingVariants: 0
  m_DoubleSidedGI: 0
  m_CustomRenderQueue: -1
  stringTagMap: {}
  disabledShaderPasses: []
  m_SavedProperties:
    serializedVersion: 3
    m_TexEnvs:
    - _BumpMap:
        m_Texture: {fileID: 0}
        m_Scale: {x: 1, y: 1}
        m_Offset: {x: 0, y: 0}
    - _DetailAlbedoMap:
        m_Texture: {fileID: 0}
        m_Scale: {x: 1, y: 1}
        m_Offset: {x: 0, y: 0}
    - _DetailMask:
        m_Texture: {fileID: 0}
        m_Scale: {x: 1, y: 1}
        m_Offset: {x: 0, y: 0}
    - _DetailNormalMap:
        m_Texture: {fileID: 0}
        m_Scale: {x: 1, y: 1}
        m_Offset: {x: 0, y: 0}
    - _EmissionMap:
        m_Texture: {fileID: 0}
        m_Scale: {x: 1, y: 1}
        m_Offset: {x: 0, y: 0}
    - _LayoutTexture:
        m_Texture: {fileID: 0}
        m_Scale: {x: 1, y: 1}
        m_Offset: {x: 0, y: 0}
    - _LightRampTexture:
        m_Texture: {fileID: 0}
        m_Scale: {x: 1, y: 1}
        m_Offset: {x: 0, y: 0}
    - _MainTex:
        m_Texture: {fileID: 0}
        m_Scale: {x: 1, y: 1}
        m_Offset: {x: 0, y: 0}
    - _MetallicGlossMap:
        m_Texture: {fileID: 0}
        m_Scale: {x: 1, y: 1}
        m_Offset: {x: 0, y: 0}
    - _OcclusionMap:
        m_Texture: {fileID: 0}
        m_Scale: {x: 1, y: 1}
        m_Offset: {x: 0, y: 0}
    - _ParallaxMap:
        m_Texture: {fileID: 0}
        m_Scale: {x: 1, y: 1}
        m_Offset: {x: 0, y: 0}
    m_Floats:
    - _Alpha: 0
    - _AmbientPower: 0
    - _BumpScale: 1
    - _Cutoff: 0.5
    - _DetailNormalMapScale: 1
    - _DstBlend: 0
    - _FogAnimationFreq: 0.1
    - _FogAnimationHeight: 0.1
    - _FogDensity: 1
    - _FogEnd: 0
    - _FogHeight: 20
    - _FogStart: 0
    - _FogYStartPos: -51.465313
    - _FrontLight: 0.7
    - _GlossMapScale: 1
    - _Glossiness: 0.5
    - _GlossyReflections: 1
    - _GradientHeight: 1
    - _GradientStartY: 0
    - _LayoutTexturePower: 0.5
    - _LightMaxDistance: 10
    - _LightProbePower: 0.5
    - _LightmapPower: 1
    - _MainTexPower: 1
    - _Metallic: 0
    - _Mode: 0
    - _OcclusionStrength: 1
    - _Parallax: 0.02
    - _RightLight: 0.9
    - _RimPower: 0.69
    - _ShadowPower: 0
    - _Shininess: 0
    - _SmoothnessTextureChannel: 0
    - _Specular: 0.01
    - _SpecularHighlights: 1
    - _SrcBlend: 1
    - _TopLight: 1
    - _UVSec: 0
    - _UseDirLight: 0
    - _UseFogDistance: 0
    - _UseFogStaticStart: 0
    - _UseLightMap: 0
    - _ZWrite: 1
    - _additiveBlend: 0
    m_Colors:
    - _AmbientColor: {r: 0.5, g: 0.1, b: 0.2, a: 0}
    - _Color: {r: 1, g: 1, b: 1, a: 1}
    - _EmissionColor: {r: 0, g: 0, b: 0, a: 1}
    - _FogColor: {r: 0.2901961, g: 0.6039216, b: 0.882353, a: 1}
    - _FogStaticStartPos: {r: 0, g: 0, b: 0, a: 1}
    - _FrontColor: {r: 0.7, g: 0.7, b: 0.7, a: 0}
    - _FrontColorBottom: {r: 0.7, g: 0.7, b: 0.7, a: 0}
    - _LightDirF: {r: 0, g: 0, b: -1, a: 1}
    - _LightDirR: {r: 1, g: 0, b: 0, a: 1}
    - _LightDirT: {r: 0, g: 1, b: 0, a: 1}
    - _LightPos: {r: 0, g: 0, b: 0, a: 1}
    - _LightTint: {r: 1, g: 1, b: 1, a: 0}
    - _LightmapColor: {r: 0, g: 0, b: 0, a: 0}
    - _MainColor: {r: 1, g: 0.33490568, b: 0.33490568, a: 0}
    - _MainColorBottom: {r: 1, g: 0.73, b: 0.117, a: 0}
    - _RightColor: {r: 0.9, g: 0.9, b: 0.9, a: 0}
    - _RightColorBottom: {r: 0.9, g: 0.9, b: 0.9, a: 0}
    - _RimColor: {r: 1, g: 1, b: 1, a: 1}
    - _RimColorBottom: {r: 0, g: 0, b: 0, a: 0}
    - _SpecColorc: {r: 1, g: 1, b: 1, a: 0}
    - _TopColor: {r: 1, g: 1, b: 1, a: 0}
    - _TopColorBottom: {r: 1, g: 1, b: 1, a: 0}
