%YAML 1.1
%TAG !u! tag:unity3d.com,2011:
--- !u!114 &11400000
MonoBehaviour:
  m_ObjectHideFlags: 0
  m_CorrespondingSourceObject: {fileID: 0}
  m_PrefabInstance: {fileID: 0}
  m_PrefabAsset: {fileID: 0}
  m_GameObject: {fileID: 0}
  m_Enabled: 1
  m_EditorHideFlags: 0
  m_Script: {fileID: 11500000, guid: 8d5ee34505161465e99006035d88e992, type: 3}
  m_Name: Game Settings
  m_EditorClassIdentifier: 
  levelSettings:
    stepsToComplete: 0
    subLevelsToComplete: 0
  colorsSettings:
    levelsColors: []
    characterMaterial: {fileID: 0}
    obstacleMaterial: {fileID: 0}
    backgroundMaterial: {fileID: 0}
